\relax 
\providecommand\hyper@newdestlabel[2]{}
\providecommand\HyperFirstAtBeginDocument{\AtBeginDocument}
\HyperFirstAtBeginDocument{\ifx\hyper@anchor\@undefined
\global\let\oldcontentsline\contentsline
\gdef\contentsline#1#2#3#4{\oldcontentsline{#1}{#2}{#3}}
\global\let\oldnewlabel\newlabel
\gdef\newlabel#1#2{\newlabelxx{#1}#2}
\gdef\newlabelxx#1#2#3#4#5#6{\oldnewlabel{#1}{{#2}{#3}}}
\AtEndDocument{\ifx\hyper@anchor\@undefined
\let\contentsline\oldcontentsline
\let\newlabel\oldnewlabel
\fi}
\fi}
\global\let\hyper@last\relax 
\gdef\HyperFirstAtBeginDocument#1{#1}
\providecommand\HyField@AuxAddToFields[1]{}
\providecommand\HyField@AuxAddToCoFields[2]{}
\@writefile{toc}{\contentsline {section}{\numberline {1}Overview}{1}{section.1}}
\@writefile{toc}{\contentsline {subsection}{\numberline {1.1}Running instructions}{1}{subsection.1.1}}
\@writefile{lof}{\contentsline {figure}{\numberline {1}{\ignorespaces Example of input and tokenization operation}}{2}{figure.1}}
\@writefile{toc}{\contentsline {subsection}{\numberline {1.2}Theoretical aspects}{2}{subsection.1.2}}
\@writefile{toc}{\contentsline {subsubsection}{\numberline {1.2.1}Data representation}{2}{subsubsection.1.2.1}}
\@writefile{toc}{\contentsline {subsubsection}{\numberline {1.2.2}Algorithm}{2}{subsubsection.1.2.2}}
\@writefile{toc}{\contentsline {subsection}{\numberline {1.3}Existing Example}{2}{subsection.1.3}}
\@writefile{toc}{\contentsline {subsection}{\numberline {1.4}Your own small Example}{2}{subsection.1.4}}
\@writefile{toc}{\contentsline {section}{\numberline {2}Proposed problem}{2}{section.2}}
\@writefile{toc}{\contentsline {subsection}{\numberline {2.1}Specification}{2}{subsection.2.1}}
\@writefile{lof}{\contentsline {figure}{\numberline {2}{\ignorespaces Output}}{3}{figure.2}}
\@writefile{toc}{\contentsline {subsection}{\numberline {2.2}Implementation}{3}{subsection.2.2}}
\@writefile{toc}{\contentsline {subsection}{\numberline {2.3}Documentation of your solution}{3}{subsection.2.3}}
